@startuml
'https://plantuml.com/activity-diagram-beta

start
: incoming request;
: get appointment
  by request id;
-> appointment;
if (appointment.latestStatus not eligable) then
    -> true;
    : error validation;
else (false)
    if (payload.status == "disetujui") then
        label sp_lab0
        -> true;
        : appointment.
            latestStatus = appointment-booked;
    else (no)
        if (payload.status == "ditolak") then
            label sp_lab1
            -> true;
            : appointment.
                latestStatus = appointment-canceled;
        endif
    endif
: update appointment;
endif
stop

@enduml
